sim/gcd_top.vcd
$date
	Thu Nov 22 10:22:27 2012
$end
$version
	Icarus Verilog
$end
$timescale
	1ps
$end
$scope module gcd_top_tb $end
$scope module uut $end
$var wire 1 ! Modulegcd_top_ParallelDoer0_while0_SequentualDoerwhileDo_DoAssign2_IsActiveWire $end
$var wire 1 " Modulegcd_top_ParallelDoer0_while0_SequentualDoerwhileDo_ParallelDoer0_IsActiveWire $end
$var wire 1 # Modulegcd_top_ParallelDoer0_while0_SequentualDoerwhileDo_while1_IsActiveWire $end
$var wire 1 $ Modulegcd_top_ParallelDoer0_while0_SequentualDoerwhileDo_while1_SequentualDoerwhileDo_if0_IsActiveWire $end
$var wire 1 % aInAckOutput $end
$var wire 32 & aInDataInput [31:0] $end
$var wire 1 ' aInIsReadyInput $end
$var wire 1 ( bInAckOutput $end
$var wire 32 ) bInDataInput [31:0] $end
$var wire 1 * bInIsReadyInput $end
$var wire 1 + clockInput $end
$var wire 1 , oOutAckInput $end
$var wire 32 - oOutDataOutput [31:0] $end
$var wire 1 . oOutReadyOutput $end
$var wire 1 / resetInput $end
$var reg 1 0 Modulegcd_top_ParallelDoer0_while0_DidTestReg $end
$var reg 1 1 Modulegcd_top_ParallelDoer0_while0_DoneReg $end
$var reg 1 2 Modulegcd_top_ParallelDoer0_while0_SequentualDoerwhileDo_ParallelDoer0_DoAssign0_DoneReg $end
$var reg 1 3 Modulegcd_top_ParallelDoer0_while0_SequentualDoerwhileDo_ParallelDoer0_DoAssign1_DoneReg $end
$var reg 32 4 Modulegcd_top_ParallelDoer0_while0_SequentualDoerwhileDo_Reg [31:0] $end
$var reg 1 5 Modulegcd_top_ParallelDoer0_while0_SequentualDoerwhileDo_while1_DidTestReg $end
$var reg 32 6 Modulegcd_top_ParallelDoer0_while0_SequentualDoerwhileDo_while1_SequentualDoerwhileDo_Reg [31:0] $end
$var reg 1 7 Modulegcd_top_ParallelDoer0_while0_SequentualDoerwhileDo_while1_SequentualDoerwhileDo_if0_DidTestReg $end
$var reg 1 8 Modulegcd_top_ParallelDoer0_while0_SequentualDoerwhileDo_while1_SequentualDoerwhileDo_if0_ParallelDoerifDo_DoAssign0_DoneReg $end
$var reg 1 9 Modulegcd_top_ParallelDoer0_while0_SequentualDoerwhileDo_while1_SequentualDoerwhileDo_if0_ParallelDoerifDo_DoAssign1_DoneReg $end
$var reg 1 : Modulegcd_top_ParallelDoer0_while0_SequentualDoerwhileDo_while1_SequentualDoerwhileDo_if0_TestPassedReg $end
$var reg 1 ; Modulegcd_top_ParallelDoer0_while0_SequentualDoerwhileDo_while1_TestPassedReg $end
$var reg 1 < Modulegcd_top_ParallelDoer0_while0_TestPassedReg $end
$var reg 32 = aRegReg [31:0] $end
$var reg 32 > bRegReg [31:0] $end
$upscope $end
$upscope $end
$enddefinitions $end
#0
$dumpvars
bx >
bx =
x<
x;
x:
x9
x8
x7
bx 6
x5
bx 4
x3
x2
x1
x0
x/
x.
bx -
0,
x+
x*
bx )
x(
x'
bx &
x%
x$
x#
x"
x!
$end
#1000
0%
0'
#2000
b0 &
#3000
0(
0*
#4000
b0 )
#5000
0+
#6000
0/
#10000
0.
b0 6
0$
b0 4
0"
0#
0!
1+
#15000
0+
#20000
1+
#21000
0;
05
0:
07
03
02
#25000
0+
#30000
1+
#31000
09
08
#35000
0+
#40000
1+
#45000
0+
#50000
1+
#55000
0+
#60000
1+
#65000
0+
#70000
1+
#75000
0+
#80000
1+
#85000
0+
#90000
1+
#95000
0+
#100000
1+
#105000
0+
#110000
1+
#111000
1/
#115000
0+
#120000
b0 =
b0 -
b0 >
1+
#121000
01
0<
00
0/
#125000
0+
#130000
1+
#131000
10
1<
#135000
0+
#140000
b1 4
1"
1+
#141000
b1100 &
#142000
b110 )
#143000
1%
1'
#144000
1(
1*
#145000
0+
#150000
0%
0(
b110 >
b1100 =
b1100 -
b10 4
0"
1#
1+
#151000
0'
#152000
0*
#155000
0+
#160000
1+
#161000
1;
15
#165000
0+
#170000
b1 6
1$
1+
#171000
b1000 &
#172000
b1100 )
#173000
1'
#174000
1*
#175000
0+
#180000
1+
#181000
17
#185000
0+
#190000
b110 =
b110 -
b0 6
0$
1+
#191000
07
05
0;
#195000
0+
#200000
1+
#201000
1;
15
#205000
0+
#210000
b1 6
1$
1+
#215000
0+
#220000
1+
#221000
17
#225000
0+
#230000
b0 =
b0 -
b0 6
0$
1+
#231000
07
05
0;
#235000
0+
#240000
1+
#241000
1;
15
#245000
0+
#250000
b1 6
1$
1+
#255000
0+
#260000
1+
#261000
1:
17
#265000
0+
#270000
b0 >
b110 =
b110 -
b0 6
0$
1+
#271000
07
0:
05
0;
#275000
0+
#280000
1+
#281000
15
#285000
0+
#290000
1.
b11 4
0#
1!
1+
#291000
05
#295000
0+
#300000
1+
#301000
1,
#305000
0+
#310000
0.
b0 4
0!
1+
#311000
00
0<
0,
#315000
0+
#320000
1+
#321000
1<
10
#325000
0+
#330000
1%
1(
b1 4
1"
1+
#335000
0+
#340000
0%
0(
b10 4
0"
1#
b1000 =
b1000 -
b1100 >
1+
#341000
0'
#342000
0*
#345000
0+
#350000
1+
#351000
15
1;
#355000
0+
#360000
b1 6
1$
1+
#361000
b1110 &
#362000
b11100 )
#363000
1'
#364000
1*
#365000
0+
#370000
1+
#371000
17
1:
#375000
0+
#380000
b0 6
0$
b1100 =
b1100 -
b1000 >
1+
#381000
0;
05
0:
07
#385000
0+
#390000
1+
#391000
15
1;
#395000
0+
#400000
b1 6
1$
1+
#405000
0+
#410000
1+
#411000
17
#415000
0+
#420000
b0 6
0$
b100 =
b100 -
1+
#421000
0;
05
07
#425000
0+
#430000
1+
#431000
15
1;
#435000
0+
#440000
b1 6
1$
1+
#445000
0+
#450000
1+
#451000
17
1:
#455000
0+
#460000
b0 6
0$
b1000 =
b1000 -
b100 >
1+
#461000
0;
05
0:
07
#465000
0+
#470000
1+
#471000
15
1;
#475000
0+
#480000
b1 6
1$
1+
#485000
0+
#490000
1+
#491000
17
#495000
0+
#500000
b0 6
0$
b100 =
b100 -
1+
#501000
0;
05
07
#505000
0+
#510000
1+
#511000
15
1;
#515000
0+
#520000
b1 6
1$
1+
#525000
0+
#530000
1+
#531000
17
#535000
0+
#540000
b0 6
0$
b0 =
b0 -
1+
#541000
0;
05
07
#545000
0+
#550000
1+
#551000
15
1;
#555000
0+
#560000
b1 6
1$
1+
#565000
0+
#570000
1+
#571000
17
1:
#575000
0+
#580000
b0 6
0$
b100 =
b100 -
b0 >
1+
#581000
0;
05
0:
07
#585000
0+
#590000
1+
#591000
15
#595000
0+
#600000
1.
b11 4
0#
1!
1+
#601000
05
#605000
0+
#610000
1+
#611000
1,
#615000
0+
#620000
0.
b0 4
0!
1+
#621000
0<
00
0,
#625000
0+
#630000
1+
#631000
10
1<
#635000
0+
#640000
1%
1(
b1 4
1"
1+
#645000
0+
#650000
0%
0(
b11100 >
b1110 =
b1110 -
b10 4
0"
1#
1+
#651000
0'
#652000
0*
#655000
0+
#660000
1+
#661000
1;
15
#665000
0+
#670000
b1 6
1$
1+
#675000
0+
#680000
1+
#681000
1:
17
#685000
0+
#690000
b1110 >
b11100 =
b11100 -
b0 6
0$
1+
#691000
07
0:
05
0;
#695000
0+
#700000
1+
#701000
1;
15
#705000
0+
#710000
b1 6
1$
1+
#715000
0+
#720000
1+
#721000
17
#725000
0+
#730000
b1110 =
b1110 -
b0 6
0$
1+
#731000
07
05
0;
#735000
0+
#740000
1+
#741000
1;
15
#745000
0+
#750000
b1 6
1$
1+
#755000
0+
#760000
1+
#761000
17
#765000
0+
#770000
b0 =
b0 -
b0 6
0$
1+
#771000
07
05
0;
#775000
0+
#780000
1+
#781000
1;
15
#785000
0+
#790000
b1 6
1$
1+
#795000
0+
#800000
1+
#801000
1:
17
#805000
0+
#810000
b0 >
b1110 =
b1110 -
b0 6
0$
1+
#811000
07
0:
05
0;
#815000
0+
#820000
1+
#821000
15
#825000
0+
#830000
1.
b11 4
0#
1!
1+
#831000
05
#835000
0+
#840000
1+
#841000
1,
#845000
0+
#850000
0.
b0 4
0!
1+
#851000
00
0<
0,
#855000
0+
#860000
1+
#861000
1<
10
#865000
0+
#870000
b1 4
1"
1+
